module github.com/sultansagi/todo-app

go 1.14

require (
	github.com/dgrijalva/jwt-go v3.2.0+incompatible
	github.com/fsnotify/fsnotify v1.4.9 // indirect
	github.com/gin-gonic/gin v1.6.3
	github.com/golang-migrate/migrate v3.5.4+incompatible // indirect
	github.com/jmoiron/sqlx v1.2.0
	github.com/joho/godotenv v1.3.0
	github.com/lib/pq v1.0.0
	github.com/magiconair/properties v1.8.4 // indirect
	github.com/mitchellh/mapstructure v1.4.0 // indirect
	github.com/pelletier/go-toml v1.8.1 // indirect
	github.com/sirupsen/logrus v1.7.0
	github.com/spf13/afero v1.5.1 // indirect
	github.com/spf13/cast v1.3.1 // indirect
	github.com/spf13/jwalterweatherman v1.1.0 // indirect
	github.com/spf13/pflag v1.0.5 // indirect
	github.com/spf13/viper v1.7.1
	golang.org/x/sys v0.0.0-20210110051926-789bb1bd4061 // indirect
	golang.org/x/text v0.3.5 // indirect
	gopkg.in/ini.v1 v1.62.0 // indirect
	gopkg.in/yaml.v2 v2.4.0 // indirect
)
